[gd_scene load_steps=3 format=2]

[ext_resource path="res://Prefab/Buff/Buff.tscn" type="PackedScene" id=1]
[ext_resource path="res://Prefab/Skill/Skill.gd" type="Script" id=2]

[node name="FireBall" type="Node2D"]
script = ExtResource( 2 )
skillName = "Fire Ball Evo"
targetType = "Enemy"
desc = "Attack enemy with fireball and add wound to enemy for 2 turns but Stonger."
cd = 3
isFinal = true

[node name="Attack" parent="." instance=ExtResource( 1 )]
position = Vector2( -3.32535, -8.79483 )
buffName = "Attack"
type = 1
isDirect = true
multiplier = 1.8

[node name="Wound" parent="." instance=ExtResource( 1 )]
position = Vector2( -3.32535, -8.79483 )
buffName = "Wound"
value = 2
type = 3
chance = 0.9
